# 3ds Max Wavefront OBJ Exporter v0.97b - (c)2007 guruware
# File Created: 15.04.2019 19:52:43

#
# object Box001
#

v  3.3236 0.0000 -1.6264
v  2.8866 0.0000 -2.3134
v  2.8866 11.7058 -2.3134
v  3.3236 11.7058 -1.6264
v  2.3134 0.0000 -2.8866
v  2.3134 11.7058 -2.8866
v  1.6264 0.0000 -3.3236
v  1.6264 11.7058 -3.3236
v  0.8478 0.0000 -3.6022
v  0.8478 11.7058 -3.6022
v  -0.0000 0.0000 -3.7000
v  -0.0000 11.7058 -3.7000
v  -0.8478 0.0000 -3.6022
v  -0.8478 11.7058 -3.6022
v  -1.6264 0.0000 -3.3236
v  -1.6264 11.7058 -3.3236
v  -2.3134 0.0000 -2.8866
v  -2.3134 11.7058 -2.8866
v  -2.8866 0.0000 -2.3134
v  -2.8866 11.7058 -2.3134
v  -3.3236 0.0000 -1.6264
v  -3.3236 11.7058 -1.6264
# 22 vertices

vn 0.8438 0.0000 -0.5367
vn 0.7801 -0.0000 -0.6257
vn 0.6257 0.0000 -0.7801
vn 0.4395 -0.0000 -0.8982
vn 0.4396 -0.0000 -0.8982
vn 0.2272 -0.0000 -0.9738
vn -0.0000 0.0000 -1.0000
vn -0.2272 0.0000 -0.9738
vn -0.4395 0.0000 -0.8982
vn -0.6257 -0.0000 -0.7801
vn -0.7801 0.0000 -0.6257
vn -0.8438 -0.0000 -0.5367
# 12 vertex normals

vt 0.0000 0.0000 -0.0006
vt 0.0988 0.0000 -0.0004
vt 0.0988 1.0000 -0.0004
vt 0.0000 1.0000 -0.0006
vt 0.1972 0.0000 -0.0001
vt 0.1972 1.0000 -0.0001
vt 0.2960 0.0000 0.0003
vt 0.2960 1.0000 0.0003
vt 0.3964 0.0000 0.0006
vt 0.3964 1.0000 0.0006
vt 0.5000 0.0000 0.0006
vt 0.5000 1.0000 0.0006
vt 0.6036 0.0000 0.0006
vt 0.6036 1.0000 0.0006
vt 0.7040 0.0000 0.0003
vt 0.7040 1.0000 0.0003
vt 0.8028 0.0000 -0.0001
vt 0.8028 1.0000 -0.0001
vt 0.9012 0.0000 -0.0004
vt 0.9012 1.0000 -0.0004
vt 1.0000 0.0000 -0.0006
vt 1.0000 1.0000 -0.0006
# 22 texture coords

o Box001
g Box001
s off
f 1/1/1 2/2/2 3/3/2 4/4/1 
f 2/2/2 5/5/3 6/6/3 3/3/2 
f 5/5/3 7/7/4 8/8/5 6/6/3 
f 7/7/4 9/9/6 10/10/6 8/8/5 
f 9/9/6 11/11/7 12/12/7 10/10/6 
f 11/11/7 13/13/8 14/14/8 12/12/7 
f 13/13/8 15/15/9 16/16/9 14/14/8 
f 15/15/9 17/17/10 18/18/10 16/16/9 
f 17/17/10 19/19/11 20/20/11 18/18/10 
f 19/19/11 21/21/12 22/22/12 20/20/11 
# 10 polygons

